<?xml version="1.0" encoding="utf-8"?>
<!-- Generator: Adobe Illustrator 22.1.0, SVG Export Plug-In . SVG Version: 6.00 Build 0)  -->
<svg version="1.1" id="Capa_1" xmlns="http://www.w3.org/2000/svg" xmlns:xlink="http://www.w3.org/1999/xlink" x="0px" y="0px"
	 viewBox="0 0 129 180" style="enable-background:new 0 0 129 180;" xml:space="preserve">
<style type="text/css">
	.st0{fill:#AAA9AF;}
	.st1{fill:#B0B0B5;}
	.st2{fill:#8B888E;}
	.st3{fill:#8D8B8F;}
	.st4{fill:#89868B;}
	.st5{fill:#9C9AA0;}
	.st6{fill:#918F94;}
	.st7{fill:#8F8C92;}
	.st8{fill:#A4A2A8;}
	.st9{fill:#878589;}
	.st10{fill:#A09EA4;}
	.st11{fill:#C2C3C9;}
	.st12{fill:#ED9B00;}
	.st13{fill:#828185;}
	.st14{fill:#96949A;}
	.st15{fill:#D1D4D8;}
	.st16{fill:#AEADB3;}
	.st17{fill:#7D7C80;}
	.st18{fill:#CACBD0;}
	.st19{fill:#BBBCC2;}
	.st20{fill:#B7B8BE;}
	.st21{fill:#A6A4AA;}
	.st22{fill:#D7D8DC;}
	.st23{fill:#DBDCE0;}
	.st24{fill:#9A989E;}
	.st25{fill:#B2B2B7;}
	.st26{fill:#B5B5BB;}
	.st27{fill:#C3C5CA;}
	.st28{fill:#9E9CA2;}
	.st29{fill:#C6C7CC;}
	.st30{fill:#B3B3BA;}
	.st31{fill:#807F81;}
	.st32{fill:#CECFD4;}
	.st33{fill:#D1D2D6;}
	.st34{fill:#ACACB1;}
	.st35{fill:#BFC0C7;}
</style>
<g>
	<g>
		<g>
			
				<image style="overflow:visible;opacity:0.75;" width="60" height="79" xlink:href="F3ED4A0B2709B2D0.png"  transform="matrix(1 0 0 1 -2.5039 6.4961)">
			</image>
			<g>
				<g>
					<polygon class="st0" points="18.1,16.9 33.3,13.8 41.4,21.7 					"/>
					<polygon class="st1" points="33.3,13.8 47,15.4 41.4,21.7 					"/>
					<polygon class="st2" points="18.9,25.3 41.7,39.7 41.6,48.2 					"/>
					<polygon class="st3" points="21.3,59 41.6,48.2 45.3,59 					"/>
					<polygon class="st1" points="6.2,23.2 18.1,16.9 18.9,25.3 					"/>
					<polygon class="st4" points="21.3,59 45.3,59 48,75.3 					"/>
					<polygon class="st5" points="37.4,74.5 21.3,59 48,75.3 					"/>
					<polygon class="st6" points="13.4,42.8 41.6,48.2 21.3,59 					"/>
					<polygon class="st7" points="13.4,42.8 18.9,25.3 41.6,48.2 					"/>
					<polygon class="st8" points="18.9,25.3 41.4,21.7 18.1,16.9 					"/>
					<polygon class="st9" points="18.9,25.3 41.4,21.7 41.7,39.7 					"/>
					<polygon class="st10" points="13.4,42.8 6.2,23.2 18.9,25.3 					"/>
				</g>
			</g>
		</g>
		<g>
			
				<image style="overflow:visible;opacity:0.75;" width="60" height="79" xlink:href="F3ED4A0B2709B2D1.png"  transform="matrix(1 0 0 1 73.4961 6.4961)">
			</image>
			<g>
				<g>
					<polygon class="st0" points="112.7,16.8 97.5,13.7 89.4,21.6 					"/>
					<polygon class="st1" points="97.5,13.7 83.8,15.4 89.4,21.6 					"/>
					<polygon class="st2" points="111.9,25.2 89.1,39.6 89.2,48.1 					"/>
					<polygon class="st3" points="109.5,58.9 89.2,48.1 85.5,58.9 					"/>
					<polygon class="st1" points="124.6,23.1 112.7,16.8 111.9,25.2 					"/>
					<polygon class="st4" points="109.5,58.9 85.5,58.9 82.8,75.2 					"/>
					<polygon class="st5" points="93.4,74.4 109.5,58.9 82.8,75.2 					"/>
					<polygon class="st6" points="117.4,42.8 89.2,48.1 109.5,58.9 					"/>
					<polygon class="st7" points="117.4,42.7 111.9,25.2 89.2,48.1 					"/>
					<polygon class="st8" points="111.9,25.2 89.4,21.6 112.7,16.8 					"/>
					<polygon class="st9" points="111.9,25.2 89.4,21.6 89.1,39.6 					"/>
					<polygon class="st10" points="117.4,42.7 124.6,23.1 111.9,25.2 					"/>
				</g>
			</g>
		</g>
		<g>
			
				<image style="overflow:visible;opacity:0.75;" width="84" height="149" xlink:href="F3ED4A0B2709B2D7.png"  transform="matrix(1 0 0 1 23.4961 0.4961)">
			</image>
			<g>
				<path class="st11" d="M65.4,137.1L65.4,137.1l8.9,2.3l8.2-4.1l4.4-6.7l-7,1.8l-1.7-3.3l-1.4,3.9l-5.4-4.1l-2.9,5l2.9-5l2.6-20.4
					l1-27.3L81.2,92l0,0l6.8,11.5l10.3,7.5l-6.6-9.7l-4.7-11.1l0,0l-4.3-15l2.7-16.3l3.7-10.8l-0.1-8.5l0.3-18l-5.6-6.2l-6.3-3.6
					L65.4,8 M65.3,8l-12.2,3.7l-6.3,3.6l-5.6,6.2l0.2,18l0,8.5l3.7,10.8l2.7,16.3l-4.2,15l-4.7,11.1l-6.6,9.6l10.3-7.5L49.5,92l0,0
					l6.3-12.8l1,27.3l2.6,20.4l6,10.2 M54.2,18.4L54.2,18.4 M85.5,27.5L85.5,27.5L85.5,27.5L85.5,27.5L85.5,27.5z M45.2,27.5
					L45.2,27.5L45.2,27.5L45.2,27.5L45.2,27.5z"/>
			</g>
		</g>
		<path class="st12" d="M47.1,104v-0.6V104z"/>
		<polygon class="st12" points="47.1,103.7 47.1,103.7 47.1,103.7 		"/>
		<path class="st12" d="M90.4,102.5L90,102L90.4,102.5z"/>
		<polygon class="st12" points="90.2,102.2 90.2,102.2 90.2,102.2 		"/>
		<g>
			<polygon class="st13" points="89.3,48.1 89.2,39.6 79.5,49.6 			"/>
			<g>
				<polygon class="st8" points="65.4,137.1 71.4,126.9 74.3,139.4 				"/>
				<polygon class="st2" points="76.8,131 79.9,130.3 82.5,135.2 				"/>
				<polygon class="st2" points="78.2,127 79.9,130.3 76.8,131 				"/>
				<polygon class="st7" points="71.4,126.9 76.8,131 74.3,139.4 				"/>
				<polygon class="st13" points="79.9,130.3 86.9,128.6 82.5,135.2 				"/>
				<polygon class="st14" points="76.8,131 82.5,135.2 74.3,139.4 				"/>
				<polygon class="st15" points="53.9,18.5 54.3,18.4 65.4,30.9 52.4,33.2 				"/>
				<polygon class="st8" points="41.5,48.1 51.3,49.6 45.2,58.9 				"/>
				<polygon class="st0" points="41.3,21.6 54.3,18.4 45.2,27.5 				"/>
				<polygon class="st11" points="53.2,11.7 65.4,8 54.3,18.4 				"/>
				<polygon class="st16" points="46.9,15.3 53.2,11.7 54.3,18.4 				"/>
				<polygon class="st8" points="46.9,15.3 54.3,18.4 41.3,21.6 				"/>
				<polygon class="st17" points="41.5,48.1 41.6,39.6 51.3,49.6 				"/>
				<polygon class="st18" points="52.4,33.2 65.4,30.9 65.4,44.3 				"/>
				<polygon class="st19" points="55.9,79.2 65.4,77.3 65.4,77.4 61.2,105.9 				"/>
				<polygon class="st20" points="47.9,75.2 51.3,49.6 55.9,79.2 				"/>
				<polygon class="st21" points="41.6,39.6 52.4,33.1 55.9,46 51.3,49.6 				"/>
				<polygon class="st22" points="55.9,46 65.4,44.3 65.4,77.3 				"/>
				<polygon class="st23" points="54.3,18.4 65.4,8 65.4,30.9 				"/>
				<polygon class="st24" points="41.6,39.6 41.3,21.6 45.2,27.4 				"/>
				<polygon class="st25" points="45.2,27.5 52.4,33.2 41.6,39.6 				"/>
				<polygon class="st26" points="45.2,27.5 54.2,18.4 52.4,33.2 				"/>
				<polygon class="st24" points="55.9,79.2 61.2,105.9 56.8,106.5 				"/>
				<polygon class="st27" points="55.9,46 65.4,77.3 55.9,79.2 				"/>
				<polygon class="st4" points="43.7,90.3 55.9,79.2 49.5,92 				"/>
				<polygon class="st16" points="51.3,49.6 55.9,46 55.9,79.2 				"/>
				<polygon class="st28" points="56.8,106.5 61.2,105.9 59.4,126.9 				"/>
				<polygon class="st29" points="52.4,33.2 65.4,44.3 55.9,46 				"/>
				<polygon class="st30" points="59.4,126.9 65.4,121 65.4,137.1 				"/>
				<polygon class="st20" points="61.2,105.9 65.4,121 59.4,126.9 				"/>
				<polygon class="st29" points="65.4,121 65.4,77.3 61.2,105.9 				"/>
				<polygon class="st24" points="45.2,58.9 51.3,49.6 47.9,75.2 				"/>
				<polygon class="st31" points="47.9,75.2 55.9,79.2 43.7,90.3 				"/>
				<g>
					<polygon class="st1" points="42.7,103.5 42.8,103.1 43.7,90.1 38.9,101.3 					"/>
					<g>
						<polygon class="st24" points="42.7,103.5 49.5,92 43.7,90.1 						"/>
						<polygon class="st11" points="42.7,103.5 38.9,101.3 32.3,111 						"/>
					</g>
				</g>
				<polygon class="st32" points="76.9,18.5 76.5,18.4 65.4,30.9 78.4,33.2 				"/>
				<polygon class="st8" points="89.3,48.1 79.5,49.6 85.6,58.9 				"/>
				<polygon class="st16" points="89.5,21.6 76.5,18.4 85.6,27.5 				"/>
				<polygon class="st11" points="77.6,11.7 65.4,8 76.5,18.4 				"/>
				<polygon class="st16" points="83.9,15.3 77.6,11.7 76.5,18.4 				"/>
				<polygon class="st8" points="83.9,15.3 76.5,18.4 89.5,21.6 				"/>
				<polygon class="st33" points="78.4,33.2 65.4,30.9 65.4,44.3 				"/>
				<polygon class="st19" points="74.9,79.2 65.4,77.3 65.4,77.4 69.6,105.9 				"/>
				<polygon class="st20" points="82.9,75.2 79.5,49.6 74.9,79.2 				"/>
				<polygon class="st21" points="89.2,39.6 78.4,33.1 74.9,46 79.5,49.6 				"/>
				<polygon class="st33" points="74.9,46 65.4,44.3 65.4,77.3 				"/>
				<polygon class="st22" points="76.5,18.4 65.4,8 65.4,30.9 				"/>
				<polygon class="st24" points="89.2,39.6 89.5,21.6 85.6,27.4 				"/>
				<polygon class="st25" points="85.6,27.5 78.4,33.2 89.2,39.6 				"/>
				<polygon class="st26" points="85.6,27.5 76.6,18.4 78.4,33.2 				"/>
				<polygon class="st24" points="74.9,79.2 69.6,105.9 74,106.5 				"/>
				<polygon class="st27" points="74.9,46 65.4,77.3 74.9,79.2 				"/>
				<polygon class="st4" points="87.1,90.3 74.9,79.2 81.3,92 				"/>
				<polygon class="st16" points="79.5,49.6 74.9,46 74.9,79.2 				"/>
				<polygon class="st28" points="74,106.5 69.6,105.9 71.4,126.9 				"/>
				<polygon class="st29" points="78.4,33.2 65.4,44.3 74.9,46 				"/>
				<polygon class="st34" points="71.4,126.9 65.4,121 65.4,137.1 				"/>
				<polygon class="st20" points="69.6,105.9 65.4,121 71.4,126.9 				"/>
				<polygon class="st35" points="65.4,121 65.4,77.3 69.6,105.9 				"/>
				<polygon class="st24" points="85.6,58.9 79.5,49.6 82.9,75.2 				"/>
				<polygon class="st31" points="82.9,75.2 74.9,79.2 87.1,90.3 				"/>
				<g>
					<polygon class="st1" points="88.1,103.5 87.9,103.1 87.1,90.2 91.8,101.3 					"/>
					<g>
						<polygon class="st24" points="88.1,103.5 81.3,92 87.1,90.2 						"/>
						<polygon class="st11" points="88.1,103.5 91.8,101.3 98.3,111 						"/>
					</g>
				</g>
			</g>
		</g>
	</g>
	<g>
		<g>
			<path class="st16" d="M47.7,157.8v19.8h-2.2l-8.8-11.8c-1.7-2.3-2.9-4.2-3-4.2h0c0,0,0.1,2.5,0.1,5.6v10.4h-2.3v-19.8h2.2
				l8.8,11.8c1.5,2,2.9,4.1,3,4.1h0c0,0-0.1-2.7-0.1-5.5v-10.4H47.7z"/>
			<path class="st16" d="M68.9,174.7c-0.9,1.2-3.4,3.3-7.2,3.3c-5.7,0-10.3-4.3-10.3-10.3c0-6,4.6-10.3,10.3-10.3
				c4.1,0.1,7.2,2.1,9,5.2l-2.3,0.6c-1.4-2.2-3.9-3.5-6.6-3.5c-4.5,0-7.9,3.2-7.9,8c0,4.8,3.5,8,8,8c3.9,0,6.4-2.3,7.2-4v-2.5h-6
				v-1.9H71v10.3h-2C68.9,175.3,68.9,174.7,68.9,174.7L68.9,174.7z"/>
			<path class="st16" d="M86.8,177.6l-4.5-7.4c-0.3,0-0.7,0-1,0h-3.7v7.4h-2.3v-19.8h6c4.6,0,7.4,2.4,7.4,6.2c0,2.8-1.5,4.8-4.1,5.7
				l4.8,7.9H86.8z M81.5,168.2c3.2,0,4.8-1.7,4.8-4.1c0-2.5-1.8-4.1-4.8-4.1h-3.9v8.2H81.5z"/>
			<path class="st16" d="M106.6,175.4v2.2H93.3v-19.8h13.2v2.2H95.6v6.1h8.7v2.1h-8.7v7.3H106.6z"/>
			<path class="st16" d="M120.9,163.3c-0.4-2.4-2.5-3.8-4.9-3.8c-2.6,0-4.4,1.2-4.4,3.2c0,2.2,2.7,2.9,5.4,3.6
				c2.8,0.8,6.5,2.1,6.5,5.9c0,3.3-2.9,5.8-7.2,5.8c-4.2,0-6.9-2.5-7.5-5.8l2.2-0.6c0.3,2.3,2.2,4.3,5.4,4.3c2.9,0,4.7-1.6,4.7-3.6
				c0-2.9-3.4-3.5-6.2-4.3c-2.3-0.7-5.6-1.7-5.6-5.1c0-3.1,2.9-5.4,6.9-5.4c3.6,0,6.4,2.1,7.1,5.3L120.9,163.3z"/>
		</g>
		<path class="st16" d="M21.5,158.2v2.5c2.4,1.3,4,3.8,4,7.1c0,4.7-3.4,8-7.9,8c-4.5,0-7.9-3.3-7.9-8c0-3.3,1.6-5.8,4-7.1v-2.5
			c-3.8,1.5-6.4,5-6.4,9.6c0,6,4.6,10.3,10.3,10.3s10.3-4.3,10.3-10.3C27.9,163.2,25.3,159.6,21.5,158.2z"/>
		<rect x="16.3" y="157.8" class="st16" width="2.7" height="10.7"/>
	</g>
</g>
</svg>
