<?xml version="1.0" encoding="utf-8"?>
<!-- Generator: Adobe Illustrator 22.1.0, SVG Export Plug-In . SVG Version: 6.00 Build 0)  -->
<svg version="1.1" xmlns="http://www.w3.org/2000/svg" xmlns:xlink="http://www.w3.org/1999/xlink" x="0px" y="0px"
	 viewBox="0 0 141.7 142.7" style="enable-background:new 0 0 141.7 142.7;" xml:space="preserve">
<style type="text/css">
	.st0{opacity:0.75;}
	.st1{fill:#FF7124;}
	.st2{fill:#FFFFFF;}
	.st3{fill:none;stroke:#FFFFFF;stroke-width:3;stroke-miterlimit:10;}
</style>
<g id="Capa_1">
</g>
<g id="Capa_2">
	<g>
		<g class="st0">
			<circle class="st1" cx="70.8" cy="71.4" r="65.5"/>
			<path class="st2" d="M70.8,7.4c35.3,0,64,28.7,64,64s-28.7,64-64,64s-64-28.7-64-64S35.5,7.4,70.8,7.4 M70.8,4.4
				c-37,0-67,30-67,67s30,67,67,67s67-30,67-67S107.8,4.4,70.8,4.4L70.8,4.4z"/>
		</g>
		<g>
			<ellipse transform="matrix(0.9883 -0.1525 0.1525 0.9883 -8.9442 14.593)" class="st3" cx="90.7" cy="65.6" rx="7.4" ry="31.1"/>
			
				<ellipse transform="matrix(0.995 -9.943797e-02 9.943797e-02 0.995 -6.0617 9.4156)" class="st3" cx="91.4" cy="65.5" rx="0.6" ry="4.4"/>
			<path class="st3" d="M48,80.7c0,0-6.5,0-6.5-9.4s4.3-8.7,4.3-8.7c20.9-2.9,38.9-27.4,38.9-27.4"/>
			<path class="st3" d="M93.5,95.8c0,0-15.9-15.9-45.4-15.1"/>
			<polyline class="st3" points="39.4,82 45.2,81.4 48,80.7 			"/>
			<path class="st3" d="M45.9,62.6l-20.2,2.9c0,0-9.6,0-7.9,10.1c1.4,8.7,7.9,7.9,7.9,7.9l1.4-0.2"/>
			<line class="st3" x1="82.7" y1="60.5" x2="91.3" y2="61.2"/>
			<line class="st3" x1="92" y1="69.8" x2="84.1" y2="72"/>
			<path class="st3" d="M36.5,79.2l-9.4,1.4l0.7,7.2l8.7,19.5c0,0,8.7,2.2,13-3.6l-4.3-4.3L38,84.3l1.4-2.2L36.5,79.2z"/>
			<g>
				<path class="st3" d="M103.6,51c0,0,12.1,8.3,5.2,25.9"/>
				<path class="st3" d="M106.3,44.2c0,0,17.4,14.9,6.7,37"/>
				<path class="st3" d="M108.4,36.9c0,0,23,14.8,9.8,49.9"/>
			</g>
		</g>
	</g>
</g>
</svg>
