<?xml version="1.0" encoding="utf-8"?>
<!-- Generator: Adobe Illustrator 22.1.0, SVG Export Plug-In . SVG Version: 6.00 Build 0)  -->
<svg version="1.1" id="Capa_1" xmlns="http://www.w3.org/2000/svg" xmlns:xlink="http://www.w3.org/1999/xlink" x="0px" y="0px"
	 viewBox="0 0 244 244" style="enable-background:new 0 0 244 244;" xml:space="preserve">
<style type="text/css">
	.st0{opacity:0.6;}
	.st1{fill:#41667C;}
	.st2{opacity:0.6;fill:none;stroke:#41667C;stroke-width:15;stroke-miterlimit:10;}
	.st3{opacity:0.6;fill:none;stroke:#41667C;stroke-width:10;stroke-miterlimit:10;}
</style>
<path class="st2" d="M122.1,191.6c64.6-42,61.7-118.2,61.7-118.2l-61.7-13.6L60.4,73.3C60.4,73.3,57.5,149.6,122.1,191.6z"/>
<g>
	<path class="st1" d="M139.8,91.1c-1.1-4.3-9.7-8.5-24.8-8.5c-15.1,0-23.7,4.2-24.8,8.5c-0.1,0.1-0.1,0.3-0.1,0.5v0.5v1.8
		c2.8,3,12.3,5.7,25,5.7s22.1-2.7,25-5.7v-1.8v-0.5C139.9,91.4,139.9,91.3,139.8,91.1z"/>
	<path class="st1" d="M109,110.1l6.1-3.3l6.1-1.2l4.5,0.5l1.9-1.1l5.2-1.6l5.2,1.6l1.9,1.1l0.1,0v-0.6V105v-0.5v-7.1
		c-4.9,3.3-15.1,5.1-25,5.1s-20.1-1.8-25-5.1v7.1v0.5v0.5v1.3c2.4,2.5,9.8,4.9,19.8,5.5L109,110.1z"/>
	<path class="st1" d="M115.8,125.6l-0.6-0.5l-3-6.2l-1.2-3.3c-6.7-0.3-12-1.3-16-2.7c-2-0.7-3.7-1.5-5-2.3v7.1v0.5v0.5v1.3
		c2.8,3,12.4,5.7,25,5.7C115.3,125.6,115.5,125.6,115.8,125.6z"/>
	<path class="st1" d="M119.7,140.5l1.7-2.5l1.5-3.6l0.8-2.9l-2-0.1l-2.9-2.8c-1.3,0.1-2.6,0.1-3.9,0.1c-12.3,0-20.8-2.3-25-5.2v8.2
		c0,0.2,0,0.3,0.1,0.5c1.2,4.9,11.7,8.5,24.8,8.5C116.6,140.7,118.2,140.6,119.7,140.5z"/>
	<g>
		<polygon class="st1" points="129.3,131 129.6,140.8 130.6,148.1 132.7,151.8 135.9,152.6 138.8,151.2 140.4,148.7 137.9,149.4 
			137.3,148.2 136.8,149.6 134.9,148.1 135.8,140.8 136.2,131.1 136.2,131.1 138.4,135.7 140.9,139.8 144.6,142.5 142.2,139 
			140.5,135 139,129.7 142.8,129.4 148.5,123.8 151.3,118.1 153.9,111 149.7,108.8 144.2,107.7 139.4,108.2 137.1,106.9 
			132.7,105.6 128.3,106.9 126.1,108.2 121.2,107.7 115.8,108.8 111.5,111 114.1,118.1 116.9,123.8 122.7,129.4 126.5,129.7 
			124.9,135 123.3,139 120.9,142.5 124.6,139.8 127.1,135.7 129.3,131.1 		"/>
	</g>
</g>
</svg>
