<?xml version="1.0" encoding="UTF-8" standalone="no"?>
<!-- Created with Inkscape (http://www.inkscape.org/) -->
<svg xmlns:dc="http://purl.org/dc/elements/1.1/" xmlns:cc="http://creativecommons.org/ns#" xmlns:rdf="http://www.w3.org/1999/02/22-rdf-syntax-ns#" xmlns:svg="http://www.w3.org/2000/svg" xmlns="http://www.w3.org/2000/svg" xmlns:sodipodi="http://sodipodi.sourceforge.net/DTD/sodipodi-0.dtd" xmlns:inkscape="http://www.inkscape.org/namespaces/inkscape" width="157.33336" height="58.150532" viewBox="0 0 41.627784 15.385662" version="1.1" id="svg1502" inkscape:version="0.92.0 r15299" sodipodi:docname="pythian.svg">
  <defs id="defs1496">
    <clipPath id="clipPath90" clipPathUnits="userSpaceOnUse">
      <path inkscape:connector-curvature="0" id="path88" d="M 0,0 H 612 V 792 H 0 Z"/>
    </clipPath>
  </defs>
  <sodipodi:namedview id="base" pagecolor="#ffffff" bordercolor="#666666" borderopacity="1.0" inkscape:pageopacity="0.0" inkscape:pageshadow="2" inkscape:zoom="5.1300631" inkscape:cx="78.16668" inkscape:cy="28.575266" inkscape:document-units="mm" inkscape:current-layer="layer1" showgrid="false" fit-margin-top="0" fit-margin-left="0" fit-margin-right="0" fit-margin-bottom="0" units="px" inkscape:window-width="1280" inkscape:window-height="744" inkscape:window-x="-4" inkscape:window-y="-4" inkscape:window-maximized="1"/>
  <metadata id="metadata1499">
    <rdf:RDF>
      <cc:Work rdf:about="">
        <dc:format>image/svg+xml</dc:format>
        <dc:type rdf:resource="http://purl.org/dc/dcmitype/StillImage"/>
        <dc:title/>
      </cc:Work>
    </rdf:RDF>
  </metadata>
  <g inkscape:label="Layer 1" inkscape:groupmode="layer" id="layer1" transform="translate(157.50898,-260.44869)">
    <g id="g84" transform="matrix(0.35277777,0,0,-0.35277777,-324.72511,533.27326)" style="fill:#000000">
      <g clip-path="url(#clipPath90)" id="g86" style="fill:#000000">
        <g transform="translate(478.5615,769.3813)" id="g92" style="fill:#000000">
          <path inkscape:connector-curvature="0" id="path94" style="fill:#000000;fill-opacity:1;fill-rule:nonzero;stroke:none" d="M 0,0 C -0.497,-0.003 -0.837,-0.148 -1.084,-0.435 -1.292,-0.685 -1.4,-1.007 -1.401,-1.437 v -9.337 h 8.106 c 1.712,0.003 3.031,0.558 4.032,1.67 v 10e-4 c 0.905,1.025 1.354,2.239 1.356,3.679 -0.002,1.491 -0.452,2.728 -1.355,3.753 -1,1.113 -2.321,1.669 -4.033,1.671 z m -2.794,-25.967 c -0.374,-0.001 -0.713,0.12 -0.989,0.368 -0.272,0.27 -0.407,0.643 -0.405,1.062 v 23.248 c 0,1.038 0.303,1.937 0.916,2.653 0.69,0.801 1.669,1.203 2.863,1.199 H 7.004 C 9.463,2.566 11.46,1.743 12.92,0.099 h -10e-4 c 1.332,-1.483 2,-3.328 1.997,-5.486 0.003,-2.111 -0.666,-3.93 -1.995,-5.41 -1.46,-1.669 -3.456,-2.508 -5.917,-2.503 h -8.405 v -11.237 c 0.003,-0.424 -0.152,-0.805 -0.453,-1.072 -0.259,-0.234 -0.586,-0.358 -0.934,-0.358 z"/>
        </g>
        <g transform="translate(496.4141,738.1826)" id="g96" style="fill:#000000">
          <path inkscape:connector-curvature="0" id="path98" style="fill:#000000;fill-opacity:1;fill-rule:nonzero;stroke:none" d="m 0,0 c -0.212,0.24 -0.321,0.542 -0.321,0.865 0,0.324 0.109,0.626 0.33,0.878 0.255,0.253 0.615,0.369 1.026,0.366 h 1.678 c 0.499,0.003 0.859,0.142 1.136,0.416 0.234,0.232 0.541,0.727 0.883,1.46 l 1.607,3.501 -6.923,17.476 c -0.088,0.188 -0.133,0.377 -0.133,0.565 -0.003,0.19 0.047,0.375 0.141,0.545 l 0.209,-0.115 -0.205,0.121 c 0.176,0.295 0.447,0.518 0.767,0.649 0.226,0.115 0.465,0.175 0.704,0.175 0.117,0 0.238,-0.013 0.355,-0.044 0.373,-0.09 0.659,-0.365 0.798,-0.74 l 5.812,-14.964 5.734,14.833 c 0.116,0.397 0.424,0.683 0.817,0.788 0.183,0.068 0.376,0.1 0.573,0.1 0.15,0 0.301,-0.017 0.457,-0.054 0.364,-0.083 0.669,-0.261 0.888,-0.542 0.125,-0.179 0.195,-0.385 0.193,-0.596 0.002,-0.152 -0.036,-0.303 -0.094,-0.45 L 7.662,3.488 C 7.08,2.196 6.377,1.219 5.545,0.568 4.734,-0.086 3.779,-0.418 2.713,-0.417 H 1.035 1.018 C 0.607,-0.417 0.245,-0.279 0,0"/>
        </g>
        <g transform="translate(522.917,743.4141)" id="g100" style="fill:#000000">
          <path inkscape:connector-curvature="0" id="path102" style="fill:#000000;fill-opacity:1;fill-rule:nonzero;stroke:none" d="m 0,0 h -3.659 c -1.195,-0.004 -2.175,0.412 -2.861,1.235 -0.634,0.713 -0.956,1.6 -0.953,2.617 v 14.94 2.049 6.411 c -0.003,0.418 0.132,0.788 0.414,1.036 l 0.16,-0.179 -0.147,0.19 c 0.268,0.209 0.6,0.312 0.966,0.31 0.364,0.002 0.697,-0.101 0.968,-0.313 0.31,-0.243 0.466,-0.62 0.462,-1.044 v -5.48 h 4.726 c 0.36,0.003 0.677,-0.095 0.896,-0.323 0.219,-0.227 0.31,-0.55 0.309,-0.919 0,-0.381 -0.089,-0.71 -0.304,-0.946 C 0.758,19.349 0.437,19.246 0.076,19.248 H -4.65 V 4.002 C -4.649,3.598 -4.542,3.289 -4.328,3.031 -4.075,2.72 -3.742,2.567 -3.249,2.563 H 0 C 0.391,2.566 0.746,2.446 1.025,2.196 1.268,1.956 1.396,1.631 1.394,1.281 1.396,0.95 1.264,0.641 1.025,0.404 0.761,0.138 0.403,0 0.012,0 Z"/>
        </g>
        <g transform="translate(527.8604,743.7837)" id="g104" style="fill:#000000">
          <path inkscape:connector-curvature="0" id="path106" style="fill:#000000;fill-opacity:1;fill-rule:nonzero;stroke:none" d="m 0,0 c -0.275,0.272 -0.405,0.659 -0.404,1.098 v 25.711 c -0.001,0.419 0.133,0.793 0.404,1.063 l 0.17,-0.168 -0.159,0.178 c 0.266,0.238 0.607,0.36 0.978,0.358 0.352,0.002 0.68,-0.124 0.943,-0.359 0.299,-0.268 0.454,-0.647 0.452,-1.072 v -8.181 c 0.713,0.741 1.464,1.327 2.257,1.756 1.202,0.641 2.548,0.959 4.022,0.958 2.059,0.002 3.737,-0.629 4.976,-1.894 1.137,-1.133 1.712,-2.561 1.709,-4.231 V 1.098 C 15.351,0.674 15.197,0.288 14.895,-0.011 14.63,-0.25 14.289,-0.372 13.917,-0.368 13.546,-0.372 13.204,-0.25 12.92,0.007 12.655,0.298 12.522,0.678 12.523,1.098 v 14.119 c -10e-4,1.018 -0.323,1.825 -0.978,2.484 -0.698,0.74 -1.637,1.113 -2.882,1.117 -1.248,0 -2.403,-0.335 -3.484,-1.007 -0.97,-0.614 -1.903,-1.539 -2.795,-2.78 V 1.135 C 2.385,0.689 2.235,0.292 1.93,-0.011 1.672,-0.243 1.355,-0.378 0.989,-0.407 H 0.979 C 0.605,-0.407 0.261,-0.264 0,0"/>
        </g>
        <g transform="translate(548.1143,743.7905)" id="g108" style="fill:#000000">
          <path inkscape:connector-curvature="0" id="path110" style="fill:#000000;fill-opacity:1;fill-rule:nonzero;stroke:none" d="m 0,0 c -0.266,0.292 -0.399,0.671 -0.398,1.091 v 18.965 c -0.003,0.39 0.132,0.737 0.416,0.959 v 10e-4 c 0.264,0.238 0.607,0.36 0.978,0.357 0.363,10e-4 0.697,-0.102 0.967,-0.312 C 2.266,20.82 2.43,20.46 2.426,20.056 V 1.091 C 2.429,0.667 2.274,0.287 1.983,0.029 1.72,-0.237 1.372,-0.378 0.996,-0.376 H 0.989 C 0.62,-0.376 0.281,-0.255 0,0"/>
        </g>
        <g transform="translate(547.7656,772.415)" id="g112" style="fill:#000000">
          <path inkscape:connector-curvature="0" id="path114" style="fill:#000000;fill-opacity:1;fill-rule:nonzero;stroke:none" d="m 0,0 c -0.293,-0.369 -0.442,-0.815 -0.442,-1.381 0,-0.537 0.147,-0.952 0.442,-1.298 0.311,-0.38 0.73,-0.568 1.342,-0.572 0.582,0.004 1.003,0.19 1.348,0.577 0.321,0.378 0.476,0.791 0.481,1.293 -0.002,0.561 -0.163,1.003 -0.48,1.372 L 2.69,-0.01 C 2.345,0.379 1.924,0.565 1.342,0.571 0.73,0.565 0.311,0.379 0,0"/>
        </g>
        <g transform="translate(566.3887,754.3403)" id="g116" style="fill:#000000">
          <path inkscape:connector-curvature="0" id="path118" style="fill:#000000;fill-opacity:1;fill-rule:nonzero;stroke:none" d="m 0,0 c -1.092,-0.329 -2.564,-0.616 -4.437,-0.865 -1.838,-0.243 -3.116,-0.714 -3.822,-1.36 -0.684,-0.594 -1.034,-1.465 -1.036,-2.689 0,-1.173 0.328,-1.997 0.963,-2.541 0.654,-0.588 1.709,-0.908 3.192,-0.908 1.687,0 3.11,0.317 4.288,0.942 1.038,0.542 1.818,1.284 2.367,2.235 V 0.63 C 1.136,0.406 0.635,0.201 0,0 m -5.14,-10.926 c -2.269,-10e-4 -4.024,0.53 -5.224,1.624 -1.176,1.042 -1.759,2.529 -1.756,4.388 0,1.675 0.393,3.005 1.214,3.959 1.209,1.361 3.34,2.197 6.368,2.575 2.643,0.368 4.357,0.775 5.062,1.166 C 1.181,3.142 1.508,3.755 1.515,4.773 1.51,5.939 1.136,6.764 0.384,7.338 -0.425,7.94 -1.677,8.261 -3.387,8.261 -5.045,8.261 -6.249,7.893 -7.031,7.2 -7.723,6.603 -8.133,5.727 -8.255,4.513 -8.312,4.132 -8.521,3.808 -8.828,3.615 -9.067,3.43 -9.363,3.337 -9.677,3.338 c -0.048,0 -0.093,0.003 -0.139,0.006 -0.352,0.028 -0.668,0.185 -0.893,0.443 -0.213,0.208 -0.324,0.492 -0.321,0.796 0,0.102 0.01,0.205 0.031,0.303 0.303,1.955 1.129,3.465 2.478,4.477 1.32,0.957 3.05,1.424 5.171,1.424 2.263,0 4.061,-0.414 5.381,-1.269 L 1.903,9.319 2.033,9.518 C 3.543,8.535 4.309,6.979 4.302,4.959 v -11.81 c 0.002,-0.382 0.097,-0.632 0.266,-0.8 0.194,-0.194 0.47,-0.301 0.876,-0.301 0.348,0.001 0.669,-0.126 0.924,-0.381 0.208,-0.24 0.327,-0.542 0.356,-0.902 0.002,-0.324 -0.11,-0.626 -0.322,-0.867 -0.246,-0.277 -0.601,-0.416 -0.997,-0.414 -1.437,0.003 -2.446,0.165 -3.081,0.566 -0.414,0.296 -0.651,0.753 -0.737,1.323 -0.671,-0.581 -1.417,-1.057 -2.233,-1.422 -1.323,-0.585 -2.818,-0.877 -4.481,-0.877 z"/>
        </g>
        <g transform="translate(575.8682,743.7837)" id="g120" style="fill:#000000">
          <path inkscape:connector-curvature="0" id="path122" style="fill:#000000;fill-opacity:1;fill-rule:nonzero;stroke:none" d="m 0,0 c -0.275,0.272 -0.406,0.659 -0.406,1.098 v 18.876 c -0.003,0.419 0.133,0.791 0.406,1.063 l 0.166,-0.169 -0.157,0.178 c 0.265,0.238 0.608,0.36 0.978,0.357 0.351,0.003 0.678,-0.122 0.944,-0.359 0.298,-0.266 0.453,-0.646 0.449,-1.07 v -1.868 c 0.663,0.922 1.465,1.659 2.4,2.199 1.209,0.694 2.62,1.038 4.217,1.037 2.059,0.002 3.737,-0.629 4.976,-1.894 1.135,-1.133 1.71,-2.561 1.708,-4.231 V 1.098 c 0.002,-0.424 -0.15,-0.81 -0.452,-1.109 -0.261,-0.237 -0.591,-0.361 -0.942,-0.357 -0.37,-0.004 -0.712,0.118 -0.995,0.375 -0.267,0.291 -0.398,0.671 -0.396,1.091 v 14.119 c -0.004,1.018 -0.326,1.825 -0.977,2.48 -0.724,0.744 -1.678,1.117 -2.922,1.121 C 7.625,18.815 6.409,18.458 5.329,17.739 4.213,17.003 3.231,15.875 2.38,14.338 V 1.135 C 2.381,0.689 2.233,0.292 1.929,-0.011 1.671,-0.243 1.354,-0.378 0.987,-0.407 H 0.976 C 0.603,-0.407 0.26,-0.266 0,0"/>
        </g>
        <path inkscape:connector-curvature="0" id="path124" style="fill:#000000;fill-opacity:1;fill-rule:nonzero;stroke:none" d="m 516.211,732.516 h -0.782 v 7.615 h 0.782 z"/>
        <g transform="translate(520.7002,737.2813)" id="g126" style="fill:#000000">
          <path inkscape:connector-curvature="0" id="path128" style="fill:#000000;fill-opacity:1;fill-rule:nonzero;stroke:none" d="m 0,0 c -0.691,0 -1.119,-0.112 -1.285,-0.338 -0.166,-0.225 -0.249,-0.812 -0.249,-1.76 0,-0.95 0.083,-1.536 0.249,-1.76 0.166,-0.225 0.594,-0.338 1.285,-0.338 0.695,0 1.126,0.113 1.292,0.338 0.165,0.224 0.25,0.81 0.25,1.76 0,0.948 -0.085,1.535 -0.25,1.76 C 1.126,-0.112 0.695,0 0,0 m 0,0.646 c 0.985,0 1.626,-0.171 1.919,-0.513 0.295,-0.342 0.44,-1.086 0.44,-2.231 0,-1.146 -0.145,-1.89 -0.44,-2.232 C 1.626,-4.671 0.985,-4.843 0,-4.843 c -0.981,0 -1.619,0.172 -1.913,0.513 -0.294,0.342 -0.441,1.086 -0.441,2.232 0,1.145 0.147,1.889 0.441,2.231 0.294,0.342 0.932,0.513 1.913,0.513"/>
        </g>
        <g transform="translate(529.1416,737.8501)" id="g130" style="fill:#000000">
          <path inkscape:connector-curvature="0" id="path132" style="fill:#000000;fill-opacity:1;fill-rule:nonzero;stroke:none" d="M 0,0 -1.786,-5.334 H -2.907 L -4.676,0 h 0.804 l 0.941,-2.901 0.297,-0.91 0.139,-0.458 0.145,-0.456 h 0.022 l 0.135,0.452 0.133,0.456 0.286,0.904 L -0.87,0 Z"/>
        </g>
        <g transform="translate(534.4131,735.646)" id="g134" style="fill:#000000">
          <path inkscape:connector-curvature="0" id="path136" style="fill:#000000;fill-opacity:1;fill-rule:nonzero;stroke:none" d="m 0,0 -0.007,0.251 c 0,0.577 -0.093,0.951 -0.283,1.125 -0.189,0.173 -0.6,0.259 -1.228,0.259 -0.631,0 -1.043,-0.101 -1.23,-0.304 C -2.936,1.126 -3.03,0.685 -3.03,0 Z m 0,-1.518 h 0.797 l 0.006,-0.194 c 0,-0.555 -0.168,-0.944 -0.504,-1.163 -0.337,-0.223 -0.928,-0.333 -1.773,-0.333 -0.981,0 -1.626,0.178 -1.931,0.539 -0.308,0.359 -0.461,1.113 -0.461,2.263 0,1.062 0.154,1.777 0.463,2.14 0.308,0.367 0.912,0.547 1.812,0.547 0.983,0 1.625,-0.158 1.931,-0.473 0.305,-0.315 0.457,-0.982 0.457,-1.997 v -0.419 h -3.839 c 0,-0.84 0.091,-1.376 0.272,-1.607 0.18,-0.231 0.601,-0.346 1.263,-0.346 0.628,0 1.036,0.054 1.226,0.164 C -0.095,-2.285 0,-2.049 0,-1.686 Z"/>
        </g>
        <g transform="translate(544.916,737.8501)" id="g138" style="fill:#000000">
          <path inkscape:connector-curvature="0" id="path140" style="fill:#000000;fill-opacity:1;fill-rule:nonzero;stroke:none" d="m 0,0 -1.513,-5.641 c -0.211,-0.797 -0.446,-1.343 -0.705,-1.641 -0.259,-0.298 -0.628,-0.445 -1.106,-0.445 -0.098,0 -0.223,0.013 -0.375,0.039 v 0.647 c 0.108,-0.022 0.199,-0.035 0.273,-0.04 0.421,-0.022 0.735,0.32 0.938,1.023 l 0.15,0.523 c 0.004,0.018 0.022,0.086 0.052,0.201 L -2.355,-5.96 -4.514,0 h 0.832 l 0.821,-2.376 0.411,-1.183 0.201,-0.598 0.208,-0.591 h 0.022 l 0.146,0.591 0.138,0.598 0.3,1.183 L -0.83,0 Z"/>
        </g>
        <g transform="translate(548.6865,737.2813)" id="g142" style="fill:#000000">
          <path inkscape:connector-curvature="0" id="path144" style="fill:#000000;fill-opacity:1;fill-rule:nonzero;stroke:none" d="m 0,0 c -0.69,0 -1.12,-0.112 -1.286,-0.338 -0.165,-0.225 -0.247,-0.812 -0.247,-1.76 0,-0.95 0.082,-1.536 0.247,-1.76 0.166,-0.225 0.596,-0.338 1.286,-0.338 0.695,0 1.126,0.113 1.291,0.338 0.165,0.224 0.249,0.81 0.249,1.76 0,0.948 -0.084,1.535 -0.249,1.76 C 1.126,-0.112 0.695,0 0,0 M 0,0.646 C 0.985,0.646 1.626,0.475 1.919,0.133 2.213,-0.209 2.36,-0.953 2.36,-2.098 2.36,-3.244 2.213,-3.988 1.919,-4.33 1.626,-4.671 0.985,-4.843 0,-4.843 c -0.981,0 -1.62,0.172 -1.914,0.513 -0.294,0.342 -0.44,1.086 -0.44,2.232 0,1.145 0.146,1.889 0.44,2.231 C -1.62,0.475 -0.981,0.646 0,0.646"/>
        </g>
        <g transform="translate(557.5293,737.8501)" id="g146" style="fill:#000000">
          <path inkscape:connector-curvature="0" id="path148" style="fill:#000000;fill-opacity:1;fill-rule:nonzero;stroke:none" d="m 0,0 v -5.334 h -0.781 l 0.056,0.698 -0.017,0.015 c -0.272,-0.526 -0.852,-0.791 -1.742,-0.791 -1.245,0 -1.868,0.621 -1.868,1.865 V 0 h 0.78 v -3.547 c 0,-0.485 0.081,-0.808 0.241,-0.973 0.159,-0.164 0.474,-0.245 0.943,-0.245 0.615,0 1.034,0.122 1.263,0.365 0.229,0.245 0.344,0.691 0.344,1.341 V 0 Z"/>
        </g>
        <g transform="translate(559.9658,737.8501)" id="g150" style="fill:#000000">
          <path inkscape:connector-curvature="0" id="path152" style="fill:#000000;fill-opacity:1;fill-rule:nonzero;stroke:none" d="M 0,0 H 0.78 L 0.703,-0.614 0.721,-0.63 c 0.308,0.501 0.817,0.753 1.528,0.753 0.98,0 1.474,-0.506 1.474,-1.518 L 3.715,-1.764 h -0.77 l 0.017,0.135 c 0.013,0.142 0.017,0.235 0.017,0.284 0,0.547 -0.297,0.821 -0.893,0.821 -0.87,0 -1.306,-0.538 -1.306,-1.612 V -5.334 H 0 Z"/>
        </g>
        <g transform="translate(571.2344,737.2813)" id="g154" style="fill:#000000">
          <path inkscape:connector-curvature="0" id="path156" style="fill:#000000;fill-opacity:1;fill-rule:nonzero;stroke:none" d="m 0,0 c -0.576,0 -0.961,-0.134 -1.149,-0.4 -0.192,-0.266 -0.285,-0.804 -0.285,-1.615 0,-0.893 0.092,-1.479 0.282,-1.759 0.187,-0.282 0.579,-0.422 1.17,-0.422 0.642,0 1.06,0.14 1.253,0.422 0.195,0.28 0.292,0.89 0.292,1.832 0,0.762 -0.107,1.276 -0.321,1.542 C 1.027,-0.134 0.611,0 0,0 M 2.35,2.85 V -4.765 H 1.568 l 0.037,0.693 -0.02,0.005 c -0.246,-0.517 -0.817,-0.776 -1.714,-0.776 -0.817,0 -1.375,0.199 -1.676,0.597 -0.299,0.397 -0.45,1.14 -0.45,2.225 0,1.001 0.151,1.697 0.453,2.085 0.302,0.389 0.841,0.582 1.619,0.582 0.97,0 1.548,-0.25 1.733,-0.753 l 0.018,0.011 V 2.85 Z"/>
        </g>
        <g transform="translate(577.9395,735.1558)" id="g158" style="fill:#000000">
          <path inkscape:connector-curvature="0" id="path160" style="fill:#000000;fill-opacity:1;fill-rule:nonzero;stroke:none" d="m 0,0 c -0.599,0 -0.988,-0.064 -1.168,-0.191 -0.181,-0.125 -0.272,-0.397 -0.272,-0.814 0,-0.431 0.089,-0.717 0.269,-0.856 0.178,-0.141 0.54,-0.209 1.088,-0.209 1.101,0 1.651,0.333 1.651,1.004 0,0.419 -0.107,0.701 -0.323,0.848 C 1.033,-0.073 0.617,0 0,0 m -1.255,1.2 h -0.776 c 0,0.62 0.14,1.038 0.421,1.25 0.281,0.216 0.83,0.321 1.648,0.321 0.89,0 1.49,-0.13 1.803,-0.392 C 2.154,2.117 2.309,1.617 2.309,0.881 V -2.64 H 1.528 l 0.063,0.576 -0.019,0.005 C 1.276,-2.499 0.67,-2.717 -0.24,-2.717 c -1.347,0 -2.02,0.54 -2.02,1.624 0,0.641 0.151,1.088 0.453,1.333 0.301,0.245 0.846,0.368 1.633,0.368 0.938,0 1.501,-0.184 1.686,-0.553 l 0.016,0.006 v 0.647 c 0,0.61 -0.084,1.005 -0.251,1.186 -0.167,0.18 -0.534,0.27 -1.099,0.27 -0.96,0 -1.44,-0.269 -1.44,-0.81 0,-0.025 0.002,-0.077 0.007,-0.154"/>
        </g>
        <g transform="translate(582.6025,737.8501)" id="g162" style="fill:#000000">
          <path inkscape:connector-curvature="0" id="path164" style="fill:#000000;fill-opacity:1;fill-rule:nonzero;stroke:none" d="M 0,0 V 1.284 H 0.782 V 0 H 2.199 V -0.648 H 0.782 v -3.264 c 0,-0.569 0.252,-0.853 0.758,-0.853 h 0.642 l 0.01,-0.654 -0.645,0.007 C 0.515,-5.412 0,-4.975 0,-4.101 v 0.189 3.264"/>
        </g>
        <g transform="translate(589.3125,735.1558)" id="g166" style="fill:#000000">
          <path inkscape:connector-curvature="0" id="path168" style="fill:#000000;fill-opacity:1;fill-rule:nonzero;stroke:none" d="m 0,0 c -0.598,0 -0.986,-0.064 -1.168,-0.191 -0.181,-0.125 -0.271,-0.397 -0.271,-0.814 0,-0.431 0.089,-0.717 0.268,-0.856 0.179,-0.141 0.542,-0.209 1.089,-0.209 1.101,0 1.651,0.333 1.651,1.004 0,0.419 -0.108,0.701 -0.322,0.848 C 1.033,-0.073 0.618,0 0,0 m -1.255,1.2 h -0.774 c 0,0.62 0.138,1.038 0.42,1.25 0.281,0.216 0.831,0.321 1.649,0.321 0.889,0 1.488,-0.13 1.802,-0.392 C 2.154,2.117 2.311,1.617 2.311,0.881 V -2.64 H 1.528 l 0.063,0.576 -0.017,0.005 c -0.298,-0.44 -0.902,-0.658 -1.812,-0.658 -1.348,0 -2.021,0.54 -2.021,1.624 0,0.641 0.15,1.088 0.451,1.333 0.302,0.245 0.847,0.368 1.635,0.368 0.939,0 1.499,-0.184 1.688,-0.553 l 0.013,0.006 v 0.647 c 0,0.61 -0.082,1.005 -0.249,1.186 -0.168,0.18 -0.534,0.27 -1.099,0.27 -0.96,0 -1.441,-0.269 -1.441,-0.81 0,-0.025 0.002,-0.077 0.006,-0.154"/>
        </g>
      </g>
    </g>
  </g>
</svg>